<?xml version="1.0" encoding="UTF-8" standalone="no"?>
<svg
   xmlns:dc="http://purl.org/dc/elements/1.1/"
   xmlns:cc="http://creativecommons.org/ns#"
   xmlns:rdf="http://www.w3.org/1999/02/22-rdf-syntax-ns#"
   xmlns:svg="http://www.w3.org/2000/svg"
   xmlns="http://www.w3.org/2000/svg"
   version="1.1"
   width="16"
   height="16"
   id="svg3004">
  <defs
     id="defs3006" />
  <metadata
     id="metadata3009">
    <rdf:RDF>
      <cc:Work
         rdf:about="">
        <dc:format>image/svg+xml</dc:format>
        <dc:type
           rdf:resource="http://purl.org/dc/dcmitype/StillImage" />
        <dc:title />
      </cc:Work>
    </rdf:RDF>
  </metadata>
  <path
     style="color:#bebebe;clip-rule:nonzero;display:inline;overflow:visible;visibility:visible;opacity:1;isolation:auto;mix-blend-mode:normal;color-interpolation:sRGB;color-interpolation-filters:linearRGB;solid-color:#000000;solid-opacity:1;fill:#ef2929;fill-opacity:1;fill-rule:nonzero;stroke:none;stroke-width:1;stroke-linecap:butt;stroke-linejoin:miter;stroke-miterlimit:4;stroke-dasharray:none;stroke-dashoffset:0;stroke-opacity:1;marker:none;color-rendering:auto;image-rendering:auto;shape-rendering:auto;text-rendering:auto;enable-background:accumulate"
     d="M 2.3554688 0.7578125 L 1.4160156 1.6992188 L 14.958984 15.242188 L 15.898438 14.300781 L 13.591797 11.994141 C 13.730821 11.47944 13.843854 10.804363 13.914062 10 L 15.498047 10 C 15.775811 10 16 9.108 16 8 C 16 6.892 15.775811 6 15.498047 6 L 13.914062 6 C 13.759996 4.2349003 13.411065 3 13 3 L 4.5976562 3 L 2.3554688 0.7578125 z M 1 3 C 0.446 3 0 5.23 0 8 C 0 10.77 0.446 13 1 13 L 11.402344 13 L 10.402344 12 L 1.5117188 12 C 1.2282888 12 1 10.216 1 8 C 1 5.784 1.2282889 4 1.5117188 4 L 2.4023438 4 L 1.4023438 3 L 1 3 z M 5.5976562 4 L 12.488281 4 C 12.771711 4 13 5.784 13 8 C 13 9.3375821 12.911473 10.460074 12.783203 11.185547 L 5.5976562 4 z M 13.958984 7 L 14.890625 7 C 14.951097 7 15 7.446 15 8 C 15 8.554 14.9511 9 14.890625 9 L 13.958984 9 C 13.972945 8.666049 14 8.355284 14 8 C 14 7.644716 13.97294 7.333951 13.958984 7 z "
     class="error"
     id="rect4347" />
  <path
     style="color:#bebebe;clip-rule:nonzero;display:inline;overflow:visible;visibility:visible;opacity:0.25;isolation:auto;mix-blend-mode:normal;color-interpolation:sRGB;color-interpolation-filters:linearRGB;solid-color:#000000;solid-opacity:1;fill:#ef2929;fill-opacity:1;fill-rule:nonzero;stroke:none;stroke-width:1;stroke-linecap:butt;stroke-linejoin:miter;stroke-miterlimit:4;stroke-dasharray:none;stroke-dashoffset:0;stroke-opacity:1;marker:none;color-rendering:auto;image-rendering:auto;shape-rendering:auto;text-rendering:auto;enable-background:accumulate"
     d="M 2.2539062 5 C 2.1137652 5 2 6.338 2 8 C 2 9.662 2.1137652 11 2.2539062 11 L 9.4023438 11 L 3.4023438 5 L 2.2539062 5 z M 5.2832031 5 L 11.283203 11 L 11.746094 11 C 11.886235 11 12 9.662 12 8 C 12 6.338 11.886235 5 11.746094 5 L 5.2832031 5 z "
     class="error"
     id="rect4151-6-5" />
</svg>
